LAB2/MEALY_MSSV/simulation/qsim/MEALY_MSSV.msim.vcd
$comment
	File created using the following command:
		vcd file MEALY_MSSV.msim.vcd -direction
$end
$date
	Tue Apr 18 16:02:21 2023
$end
$version
	ModelSim Version 10.1d
$end
$timescale
	1ps
$end
$scope module MEALY_MSSV_vlg_vec_tst $end
$var reg 1 ! CLK $end
$var reg 3 " I [2:0] $end
$var wire 1 # OUTPUT $end
$var wire 1 $ Q [2] $end
$var wire 1 % Q [1] $end
$var wire 1 & Q [0] $end
$var wire 1 ' sampler $end
$scope module i1 $end
$var wire 1 ( gnd $end
$var wire 1 ) vcc $end
$var wire 1 * unknown $end
$var tri1 1 + devclrn $end
$var tri1 1 , devpor $end
$var tri1 1 - devoe $end
$var wire 1 . inst|inst22~0_combout $end
$var wire 1 / inst|inst9~0_combout $end
$var wire 1 0 inst|inst9~1_combout $end
$var wire 1 1 CLK~combout $end
$var wire 1 2 inst|inst21~0_combout $end
$var wire 1 3 inst|inst21~1_combout $end
$var wire 1 4 inst|inst21~2_combout $end
$var wire 1 5 inst3~regout $end
$var wire 1 6 inst|inst9~2_combout $end
$var wire 1 7 inst|inst9~3_combout $end
$var wire 1 8 inst1~regout $end
$var wire 1 9 inst|inst22~1_combout $end
$var wire 1 : inst|inst22~2_combout $end
$var wire 1 ; inst2~regout $end
$var wire 1 < inst6~0_combout $end
$var wire 1 = inst6~combout $end
$var wire 1 > I~combout [2] $end
$var wire 1 ? I~combout [1] $end
$var wire 1 @ I~combout [0] $end
$upscope $end
$upscope $end
$enddefinitions $end
#0
$dumpvars
0!
b0 "
0#
0&
0%
0$
x'
0(
1)
x*
1+
1,
1-
0.
0/
00
01
02
03
04
05
06
07
08
09
0:
0;
0<
0=
0@
0?
0>
$end
#10000
b10 "
1?
0'
13
14
#20000
1!
11
1'
15
1&
#30000
b0 "
0?
0'
03
04
#40000
0!
01
1'
#50000
b1 "
1@
0'
19
12
1/
14
10
17
#60000
1!
11
1'
18
09
13
00
1.
1$
04
07
#70000
b0 "
0@
0'
03
02
0/
#80000
0!
01
1'
#90000
b100 "
b101 "
1@
1>
0'
19
13
12
1/
1:
10
17
#100000
1!
11
1'
1;
05
0/
0.
09
03
1%
0&
00
0:
07
#110000
b1 "
b0 "
0@
0>
0'
19
#120000
0!
01
1'
#130000
b10 "
1?
0'
1<
13
02
1.
10
14
1:
17
#140000
1!
11
1'
15
09
16
03
12
1&
0:
04
#150000
b0 "
0?
0'
0<
02
0.
00
07
#160000
0!
b10 "
01
1?
1'
1<
12
1.
10
17
#180000
1!
11
0'
0;
05
0<
14
0.
19
13
02
0%
0&
00
07
#190000
b0 "
0?
1'
03
12
1.
1:
#200000
0!
01
0'
#220000
1!
11
1'
1;
08
15
06
04
09
02
1%
0$
1&
0:
#240000
b1 "
0!
1@
01
0'
19
12
1:
#260000
1!
11
1'
05
09
02
0&
0:
#270000
b0 "
0@
0'
#280000
b100 "
b110 "
0!
1?
1>
01
1'
1<
13
0.
1=
1#
#300000
1!
11
0'
0;
0<
0%
0=
0#
#310000
b10 "
b0 "
0?
0>
1'
03
14
04
#320000
0!
01
0'
#340000
1!
11
1'
#360000
0!
01
0'
#380000
1!
11
1'
#400000
0!
01
0'
#420000
1!
11
1'
#440000
0!
01
0'
#460000
1!
11
1'
#480000
0!
01
0'
#500000
1!
11
1'
#520000
0!
01
0'
#540000
1!
11
1'
#560000
0!
01
0'
#580000
1!
11
1'
#600000
0!
01
0'
#620000
1!
11
1'
#640000
0!
01
0'
#660000
1!
11
1'
#680000
0!
01
0'
#700000
1!
11
1'
#720000
0!
01
0'
#740000
1!
11
1'
#760000
0!
01
0'
#780000
1!
11
1'
#800000
0!
01
0'
#820000
1!
11
1'
#840000
0!
01
0'
#860000
1!
11
1'
#880000
0!
01
0'
#900000
1!
11
1'
#920000
0!
01
0'
#940000
1!
11
1'
#960000
0!
01
0'
#980000
1!
11
1'
