Lab456/PRCS/simulation/qsim/PRCS.msim.vcd
$comment
	File created using the following command:
		vcd file PRCS.msim.vcd -direction
$end
$date
	Thu Jun 08 21:24:49 2023
$end
$version
	ModelSim Version 10.1d
$end
$timescale
	1ps
$end
$scope module PRCS_vlg_vec_tst $end
$var reg 1 ! CLK $end
$var reg 4 " IN [3:0] $end
$var reg 1 # RESET $end
$var wire 1 $ IE $end
$var wire 1 % OE $end
$var wire 1 & OUT [15] $end
$var wire 1 ' OUT [14] $end
$var wire 1 ( OUT [13] $end
$var wire 1 ) OUT [12] $end
$var wire 1 * OUT [11] $end
$var wire 1 + OUT [10] $end
$var wire 1 , OUT [9] $end
$var wire 1 - OUT [8] $end
$var wire 1 . OUT [7] $end
$var wire 1 / OUT [6] $end
$var wire 1 0 OUT [5] $end
$var wire 1 1 OUT [4] $end
$var wire 1 2 OUT [3] $end
$var wire 1 3 OUT [2] $end
$var wire 1 4 OUT [1] $end
$var wire 1 5 OUT [0] $end
$var wire 1 6 sampler $end
$scope module i1 $end
$var wire 1 7 gnd $end
$var wire 1 8 vcc $end
$var wire 1 9 unknown $end
$var tri1 1 : devclrn $end
$var tri1 1 ; devpor $end
$var tri1 1 < devoe $end
$var wire 1 = inst2|inst|inst|inst|inst7~regout $end
$var wire 1 > inst2|inst|inst3|inst|inst7~regout $end
$var wire 1 ? inst2|inst|DATA_OUTA[15]~0_combout $end
$var wire 1 @ inst2|inst|inst2|inst|inst6~regout $end
$var wire 1 A inst2|inst|inst1|inst|inst5~regout $end
$var wire 1 B inst2|inst|inst2|inst|inst4~regout $end
$var wire 1 C inst2|inst|inst1|inst|inst3~regout $end
$var wire 1 D inst2|inst|inst2|inst|inst2~regout $end
$var wire 1 E inst2|inst|inst1|inst|inst1~regout $end
$var wire 1 F inst2|inst|inst2|inst|inst~regout $end
$var wire 1 G inst2|inst|inst1|inst1|inst7~regout $end
$var wire 1 H inst2|inst|inst2|inst1|inst6~regout $end
$var wire 1 I inst2|inst|inst1|inst1|inst5~regout $end
$var wire 1 J inst2|inst|inst2|inst1|inst4~regout $end
$var wire 1 K inst2|inst|inst1|inst1|inst3~regout $end
$var wire 1 L inst2|inst|inst2|inst1|inst2~regout $end
$var wire 1 M inst2|inst|inst1|inst1|inst1~regout $end
$var wire 1 N inst2|inst|inst2|inst1|inst~regout $end
$var wire 1 O inst2|inst|DATA_OUTB[0]~31_combout $end
$var wire 1 P inst2|inst4|inst|inst2|inst7|inst5~1_combout $end
$var wire 1 Q inst2|inst|DATA_OUTA[1]~1_combout $end
$var wire 1 R inst2|inst4|inst|inst2|inst6|inst5~0_combout $end
$var wire 1 S inst2|inst|DATA_OUTA[2]~2_combout $end
$var wire 1 T inst2|inst4|inst|inst2|inst5|inst5~0_combout $end
$var wire 1 U inst2|inst|DATA_OUTA[3]~3_combout $end
$var wire 1 V inst2|inst4|inst|inst2|inst4|inst5~0_combout $end
$var wire 1 W inst2|inst|DATA_OUTA[4]~4_combout $end
$var wire 1 X inst2|inst4|inst|inst2|inst3|inst5~0_combout $end
$var wire 1 Y inst2|inst|DATA_OUTA[5]~5_combout $end
$var wire 1 Z inst2|inst4|inst|inst2|inst2|inst5~0_combout $end
$var wire 1 [ inst2|inst|DATA_OUTA[6]~6_combout $end
$var wire 1 \ inst2|inst4|inst|inst2|inst1|inst5~0_combout $end
$var wire 1 ] inst2|inst|DATA_OUTA[7]~7_combout $end
$var wire 1 ^ inst2|inst4|inst|inst2|inst|inst5~0_combout $end
$var wire 1 _ inst2|inst|DATA_OUTA[8]~8_combout $end
$var wire 1 ` inst2|inst4|inst|inst|inst7|inst5~0_combout $end
$var wire 1 a inst2|inst|DATA_OUTA[9]~9_combout $end
$var wire 1 b inst2|inst4|inst|inst|inst6|inst5~0_combout $end
$var wire 1 c inst2|inst|DATA_OUTA[10]~10_combout $end
$var wire 1 d inst2|inst4|inst|inst|inst5|inst5~0_combout $end
$var wire 1 e inst2|inst|DATA_OUTA[11]~11_combout $end
$var wire 1 f inst2|inst4|inst|inst|inst4|inst5~0_combout $end
$var wire 1 g inst2|inst|DATA_OUTA[12]~12_combout $end
$var wire 1 h inst2|inst4|inst|inst|inst3|inst5~0_combout $end
$var wire 1 i inst2|inst|DATA_OUTA[13]~13_combout $end
$var wire 1 j inst2|inst4|inst|inst|inst2|inst5~0_combout $end
$var wire 1 k inst2|inst|DATA_OUTA[14]~14_combout $end
$var wire 1 l inst2|inst4|inst|inst|inst1|inst5~0_combout $end
$var wire 1 m inst2|inst|inst2|inst|inst7~regout $end
$var wire 1 n inst2|inst|inst1|inst|inst7~regout $end
$var wire 1 o inst2|inst|DATA_OUTB[15]~32_combout $end
$var wire 1 p inst2|inst|DATA_OUTB[15]~33_combout $end
$var wire 1 q inst2|inst4|inst|inst|inst|inst2~combout $end
$var wire 1 r inst2|inst4|inst|inst|inst1|inst2~combout $end
$var wire 1 s inst2|inst4|inst|inst|inst2|inst2~combout $end
$var wire 1 t inst2|inst4|inst|inst|inst3|inst2~combout $end
$var wire 1 u inst2|inst4|inst|inst|inst4|inst2~combout $end
$var wire 1 v inst2|inst4|inst|inst|inst5|inst2~combout $end
$var wire 1 w inst2|inst4|inst|inst|inst6|inst2~combout $end
$var wire 1 x inst2|inst4|inst|inst|inst7|inst2~combout $end
$var wire 1 y inst2|inst4|inst|inst2|inst|inst2~combout $end
$var wire 1 z inst2|inst4|inst|inst2|inst1|inst2~combout $end
$var wire 1 { inst2|inst4|inst|inst2|inst2|inst2~combout $end
$var wire 1 | inst2|inst4|inst|inst2|inst3|inst2~combout $end
$var wire 1 } inst2|inst4|inst|inst2|inst4|inst2~combout $end
$var wire 1 ~ inst2|inst4|inst|inst2|inst5|inst2~combout $end
$var wire 1 !! inst2|inst4|inst|inst2|inst6|inst2~combout $end
$var wire 1 "! inst2|inst2|inst|inst|inst8~0_combout $end
$var wire 1 #! inst2|inst2|inst|inst|inst8~1_combout $end
$var wire 1 $! CLK~combout $end
$var wire 1 %! inst|inst3~0_combout $end
$var wire 1 &! RESET~combout $end
$var wire 1 '! inst|inst3~regout $end
$var wire 1 (! inst|inst1~0_combout $end
$var wire 1 )! inst|inst1~regout $end
$var wire 1 *! inst|inst4|inst11~combout $end
$var wire 1 +! inst|inst~regout $end
$var wire 1 ,! inst|inst4|inst14~combout $end
$var wire 1 -! inst|inst2~regout $end
$var wire 1 .! inst|inst6|inst5~0_combout $end
$var wire 1 /! inst|inst6|inst6~combout $end
$var wire 1 0! inst|inst7|inst18~combout $end
$var wire 1 1! inst|inst7|inst14~combout $end
$var wire 1 2! inst2|inst|inst4|inst~0_combout $end
$var wire 1 3! inst2|inst|inst3|inst1|inst~regout $end
$var wire 1 4! inst2|inst4|inst|inst2|inst7|inst5~0_combout $end
$var wire 1 5! inst2|inst4|inst4|inst3|inst3|inst~combout $end
$var wire 1 6! inst2|inst2|inst3|inst3|inst8~0_combout $end
$var wire 1 7! inst2|inst|inst4|inst3~0_combout $end
$var wire 1 8! inst2|inst|inst|inst1|inst~regout $end
$var wire 1 9! inst2|inst|DATA_OUTB[0]~30_combout $end
$var wire 1 :! inst2|inst|DATA_OUTB[0]~34_combout $end
$var wire 1 ;! inst2|inst4|inst4|inst3|inst2|inst8~0_combout $end
$var wire 1 <! inst2|inst2|inst3|inst2|inst8~0_combout $end
$var wire 1 =! inst2|inst|inst4|inst3~1_combout $end
$var wire 1 >! inst2|inst|inst2|inst1|inst1~regout $end
$var wire 1 ?! inst2|inst|inst3|inst1|inst1~regout $end
$var wire 1 @! inst2|inst|DATA_OUTB[1]~28_combout $end
$var wire 1 A! inst2|inst|inst|inst1|inst1~regout $end
$var wire 1 B! inst2|inst|DATA_OUTB[1]~29_combout $end
$var wire 1 C! inst2|inst4|inst4|inst3|inst1|inst8~0_combout $end
$var wire 1 D! inst2|inst2|inst3|inst1|inst8~0_combout $end
$var wire 1 E! inst2|inst|inst4|inst3~2_combout $end
$var wire 1 F! inst2|inst|inst1|inst1|inst2~regout $end
$var wire 1 G! inst2|inst|inst3|inst1|inst2~regout $end
$var wire 1 H! inst2|inst|DATA_OUTB[2]~26_combout $end
$var wire 1 I! inst2|inst|inst|inst1|inst2~regout $end
$var wire 1 J! inst2|inst|DATA_OUTB[2]~27_combout $end
$var wire 1 K! inst2|inst4|inst4|inst3|inst|inst8~0_combout $end
$var wire 1 L! inst2|inst2|inst3|inst|inst8~0_combout $end
$var wire 1 M! inst2|inst|inst2|inst1|inst3~regout $end
$var wire 1 N! inst2|inst|inst3|inst1|inst3~regout $end
$var wire 1 O! inst2|inst|DATA_OUTB[3]~24_combout $end
$var wire 1 P! inst2|inst|inst|inst1|inst3~regout $end
$var wire 1 Q! inst2|inst|DATA_OUTB[3]~25_combout $end
$var wire 1 R! inst2|inst4|inst4|inst2|inst3|inst8~0_combout $end
$var wire 1 S! inst2|inst2|inst2|inst3|inst8~0_combout $end
$var wire 1 T! inst2|inst|inst1|inst1|inst4~regout $end
$var wire 1 U! inst2|inst|inst3|inst1|inst4~regout $end
$var wire 1 V! inst2|inst|DATA_OUTB[4]~22_combout $end
$var wire 1 W! inst2|inst|inst|inst1|inst4~regout $end
$var wire 1 X! inst2|inst|DATA_OUTB[4]~23_combout $end
$var wire 1 Y! inst2|inst4|inst4|inst2|inst2|inst8~0_combout $end
$var wire 1 Z! inst2|inst2|inst2|inst2|inst8~0_combout $end
$var wire 1 [! inst2|inst|inst2|inst1|inst5~regout $end
$var wire 1 \! inst2|inst|inst3|inst1|inst5~regout $end
$var wire 1 ]! inst2|inst|DATA_OUTB[5]~20_combout $end
$var wire 1 ^! inst2|inst|inst|inst1|inst5~regout $end
$var wire 1 _! inst2|inst|DATA_OUTB[5]~21_combout $end
$var wire 1 `! inst2|inst4|inst4|inst2|inst1|inst8~0_combout $end
$var wire 1 a! inst2|inst2|inst2|inst1|inst8~0_combout $end
$var wire 1 b! inst2|inst|inst1|inst1|inst6~regout $end
$var wire 1 c! inst2|inst|inst3|inst1|inst6~regout $end
$var wire 1 d! inst2|inst|DATA_OUTB[6]~18_combout $end
$var wire 1 e! inst2|inst|inst|inst1|inst6~regout $end
$var wire 1 f! inst2|inst|DATA_OUTB[6]~19_combout $end
$var wire 1 g! inst2|inst4|inst4|inst2|inst|inst8~0_combout $end
$var wire 1 h! inst2|inst2|inst2|inst|inst8~0_combout $end
$var wire 1 i! inst2|inst|inst2|inst1|inst7~regout $end
$var wire 1 j! inst2|inst|inst3|inst1|inst7~regout $end
$var wire 1 k! inst2|inst|DATA_OUTB[7]~16_combout $end
$var wire 1 l! inst2|inst|inst|inst1|inst7~regout $end
$var wire 1 m! inst2|inst|DATA_OUTB[7]~17_combout $end
$var wire 1 n! inst2|inst4|inst4|inst1|inst3|inst8~0_combout $end
$var wire 1 o! inst2|inst2|inst1|inst3|inst8~0_combout $end
$var wire 1 p! inst2|inst|inst1|inst|inst~regout $end
$var wire 1 q! inst2|inst|inst3|inst|inst~regout $end
$var wire 1 r! inst2|inst|DATA_OUTB[8]~14_combout $end
$var wire 1 s! inst2|inst|inst|inst|inst~regout $end
$var wire 1 t! inst2|inst|DATA_OUTB[8]~15_combout $end
$var wire 1 u! inst2|inst4|inst4|inst1|inst2|inst8~0_combout $end
$var wire 1 v! inst2|inst2|inst1|inst2|inst8~0_combout $end
$var wire 1 w! inst2|inst|inst2|inst|inst1~regout $end
$var wire 1 x! inst2|inst|inst3|inst|inst1~regout $end
$var wire 1 y! inst2|inst|DATA_OUTB[9]~12_combout $end
$var wire 1 z! inst2|inst|inst|inst|inst1~regout $end
$var wire 1 {! inst2|inst|DATA_OUTB[9]~13_combout $end
$var wire 1 |! inst2|inst4|inst4|inst1|inst1|inst8~0_combout $end
$var wire 1 }! inst2|inst2|inst1|inst1|inst8~0_combout $end
$var wire 1 ~! inst2|inst|inst1|inst|inst2~regout $end
$var wire 1 !" inst2|inst|inst3|inst|inst2~regout $end
$var wire 1 "" inst2|inst|DATA_OUTB[10]~10_combout $end
$var wire 1 #" inst2|inst|inst|inst|inst2~regout $end
$var wire 1 $" inst2|inst|DATA_OUTB[10]~11_combout $end
$var wire 1 %" inst2|inst4|inst4|inst1|inst|inst8~0_combout $end
$var wire 1 &" inst2|inst2|inst1|inst|inst8~0_combout $end
$var wire 1 '" inst2|inst|inst2|inst|inst3~regout $end
$var wire 1 (" inst2|inst|inst3|inst|inst3~regout $end
$var wire 1 )" inst2|inst|DATA_OUTB[11]~8_combout $end
$var wire 1 *" inst2|inst|inst|inst|inst3~regout $end
$var wire 1 +" inst2|inst|DATA_OUTB[11]~9_combout $end
$var wire 1 ," inst2|inst4|inst4|inst|inst3|inst8~0_combout $end
$var wire 1 -" inst2|inst2|inst|inst3|inst8~0_combout $end
$var wire 1 ." inst2|inst|inst1|inst|inst4~regout $end
$var wire 1 /" inst2|inst|inst3|inst|inst4~regout $end
$var wire 1 0" inst2|inst|DATA_OUTB[12]~6_combout $end
$var wire 1 1" inst2|inst|inst|inst|inst4~regout $end
$var wire 1 2" inst2|inst|DATA_OUTB[12]~7_combout $end
$var wire 1 3" inst2|inst4|inst4|inst|inst2|inst8~0_combout $end
$var wire 1 4" inst2|inst2|inst|inst2|inst8~0_combout $end
$var wire 1 5" inst2|inst|inst2|inst|inst5~regout $end
$var wire 1 6" inst2|inst|inst3|inst|inst5~regout $end
$var wire 1 7" inst2|inst|DATA_OUTB[13]~4_combout $end
$var wire 1 8" inst2|inst|inst|inst|inst5~regout $end
$var wire 1 9" inst2|inst|DATA_OUTB[13]~5_combout $end
$var wire 1 :" inst2|inst4|inst4|inst|inst1|inst8~0_combout $end
$var wire 1 ;" inst2|inst2|inst|inst1|inst8~0_combout $end
$var wire 1 <" inst2|inst|inst1|inst|inst6~regout $end
$var wire 1 =" inst2|inst|inst3|inst|inst6~regout $end
$var wire 1 >" inst2|inst|DATA_OUTB[14]~2_combout $end
$var wire 1 ?" inst2|inst|inst|inst|inst6~regout $end
$var wire 1 @" inst2|inst|DATA_OUTB[14]~3_combout $end
$var wire 1 A" inst2|inst4|inst4|inst|inst|inst8~0_combout $end
$var wire 1 B" inst|inst6|inst7~combout $end
$var wire 1 C" inst2|inst11|inst|inst7~regout $end
$var wire 1 D" inst2|inst11|inst|inst6~regout $end
$var wire 1 E" inst2|inst11|inst|inst5~regout $end
$var wire 1 F" inst2|inst11|inst|inst4~regout $end
$var wire 1 G" inst2|inst11|inst|inst3~regout $end
$var wire 1 H" inst2|inst11|inst|inst2~regout $end
$var wire 1 I" inst2|inst11|inst|inst1~regout $end
$var wire 1 J" inst2|inst11|inst|inst~regout $end
$var wire 1 K" inst2|inst11|inst1|inst7~regout $end
$var wire 1 L" inst2|inst11|inst1|inst6~regout $end
$var wire 1 M" inst2|inst11|inst1|inst5~regout $end
$var wire 1 N" inst2|inst11|inst1|inst4~regout $end
$var wire 1 O" inst2|inst11|inst1|inst3~regout $end
$var wire 1 P" inst2|inst11|inst1|inst2~regout $end
$var wire 1 Q" inst2|inst11|inst1|inst1~regout $end
$var wire 1 R" inst2|inst11|inst1|inst~regout $end
$var wire 1 S" inst2|inst1 [15] $end
$var wire 1 T" inst2|inst1 [14] $end
$var wire 1 U" inst2|inst1 [13] $end
$var wire 1 V" inst2|inst1 [12] $end
$var wire 1 W" inst2|inst1 [11] $end
$var wire 1 X" inst2|inst1 [10] $end
$var wire 1 Y" inst2|inst1 [9] $end
$var wire 1 Z" inst2|inst1 [8] $end
$var wire 1 [" inst2|inst1 [7] $end
$var wire 1 \" inst2|inst1 [6] $end
$var wire 1 ]" inst2|inst1 [5] $end
$var wire 1 ^" inst2|inst1 [4] $end
$var wire 1 _" inst2|inst1 [3] $end
$var wire 1 `" inst2|inst1 [2] $end
$var wire 1 a" inst2|inst1 [1] $end
$var wire 1 b" inst2|inst1 [0] $end
$var wire 1 c" IN~combout [3] $end
$var wire 1 d" IN~combout [2] $end
$var wire 1 e" IN~combout [1] $end
$var wire 1 f" IN~combout [0] $end
$upscope $end
$upscope $end
$enddefinitions $end
#0
$dumpvars
0!
b11 "
0#
1$
0%
05
04
03
02
01
00
0/
0.
0-
0,
0+
0*
0)
0(
0'
0&
x6
07
18
x9
1:
1;
1<
0=
0>
0?
0@
0A
0B
0C
0D
0E
0F
0G
0H
0I
0J
0K
0L
0M
0N
0O
0P
0Q
0R
0S
0T
0U
0V
0W
0X
0Y
0Z
0[
0\
0]
0^
0_
0`
0a
0b
0c
0d
0e
0f
0g
0h
0i
0j
0k
0l
0m
0n
0o
0p
0q
0r
0s
0t
0u
0v
0w
0x
0y
0z
0{
0|
0}
0~
0!!
0"!
0#!
0$!
1%!
0&!
0'!
0(!
0)!
0*!
0+!
0,!
0-!
1.!
0/!
00!
01!
12!
03!
04!
05!
16!
07!
08!
09!
0:!
0;!
1<!
0=!
0>!
0?!
0@!
0A!
0B!
0C!
0D!
0E!
0F!
0G!
0H!
0I!
0J!
0K!
0L!
0M!
0N!
0O!
0P!
0Q!
0R!
0S!
0T!
0U!
0V!
0W!
0X!
0Y!
0Z!
0[!
0\!
0]!
0^!
0_!
0`!
0a!
0b!
0c!
0d!
0e!
0f!
0g!
0h!
0i!
0j!
0k!
0l!
0m!
0n!
0o!
0p!
0q!
0r!
0s!
0t!
0u!
0v!
0w!
0x!
0y!
0z!
0{!
0|!
0}!
0~!
0!"
0""
0#"
0$"
0%"
0&"
0'"
0("
0)"
0*"
0+"
0,"
0-"
0."
0/"
00"
01"
02"
03"
04"
05"
06"
07"
08"
09"
0:"
0;"
0<"
0="
0>"
0?"
0@"
0A"
0B"
0C"
0D"
0E"
0F"
0G"
0H"
0I"
0J"
0K"
0L"
0M"
0N"
0O"
0P"
0Q"
0R"
0b"
0a"
0`"
0_"
0^"
0]"
0\"
0["
0Z"
0Y"
0X"
0W"
0V"
0U"
0T"
0S"
1f"
1e"
0d"
0c"
$end
#20000
1!
1$!
06
1?!
13!
1'!
1@!
1Q
19!
14!
1=!
02!
11!
1,!
0%!
1!!
1:!
1P
15!
0@!
09!
1;!
05!
0!!
1R
0:!
0P
0;!
1~
15!
1!!
0R
1C!
1;!
0~
0C!
#40000
0!
0$!
16
#50000
b111 "
b101 "
0e"
1d"
06
0<!
1D!
#60000
1!
1$!
16
1-!
0'!
1N
1L
0=!
04!
12!
01!
0.!
0Q
0;!
05!
1%!
1@!
19!
0D!
06!
0!!
0$
1B!
1:!
1C!
1!!
1;!
1D!
1<!
#70000
b111 "
1e"
06
#80000
0!
0$!
16
#100000
1!
1$!
06
1G!
03!
1'!
1H!
09!
0C!
17!
15!
02!
1.!
0,!
1(!
0%!
1"!
1J!
0:!
16!
1#!
0"!
1$
1~
05!
0#!
1C!
#110000
b1111 "
b1110 "
b1010 "
b1000 "
0f"
0e"
0d"
1c"
16
06!
0<!
0D!
1;"
14"
1-"
1&"
1}!
1v!
1o!
1h!
1a!
1Z!
1S!
1L!
1"!
1#!
#120000
0!
0$!
06
#140000
1!
1$!
16
1?"
18"
11"
1*"
1#"
1z!
1s!
1l!
1e!
1^!
1W!
1P!
0-!
1)!
0'!
1=
1E!
07!
0.!
1S
1Q
1K!
0;!
1%!
0;"
04"
0-"
0&"
0}!
0v!
0o!
0h!
0a!
0Z!
0S!
1D!
0#!
0"!
0~
1T
0!!
1R
0$
1}
1~
#160000
b0 "
b1 "
b101 "
0!
1f"
1d"
0c"
0$!
06
#180000
1!
1$!
16
1F!
1'!
1K
0E!
12!
11!
1,!
0%!
1"!
1Q!
0B!
0@!
0}
1V
1!!
0R
0K!
1|
1;!
0~
0L!
1R!
1<!
0C!
1S!
0D!
#190000
b111 "
1e"
06
#200000
0!
0$!
16
#220000
1!
1$!
06
1U!
0G!
1-!
0'!
1W
0S
17!
02!
10!
1k
1i
1g
1e
1c
1a
1_
1]
1[
1Y
1U
0Q
1?
1K!
0;!
1%!
0"!
0|
1X
1~
0T
1>"
17"
10"
1)"
1""
1y!
1r!
1k!
1d!
1]!
1V!
1O!
0J!
1@!
1o
1r
1s
1t
1u
1v
1w
1x
1y
1z
1{
1}
0!!
1q
1L!
0<!
0{
1Z
0}
1@"
19"
12"
1+"
1$"
1{!
1t!
1m!
1f!
1_!
1X!
0K!
0~
1p
1Y!
1\
1A"
1#!
0r
1l
1:"
0s
1j
13"
0t
1h
1,"
0u
1f
1%"
0v
1d
1|!
0w
1b
1u!
0x
1`
1n!
0y
1^
1g!
1`!
1{
1|
0L!
0q
1Z!
1y
1q
1;"
1r
14"
1s
1-"
1t
1&"
1u
1}!
1v
1v!
1w
1o!
1x
1h!
1a!
#240000
b1111 "
b1110 "
b1010 "
b1000 "
0!
0f"
0e"
0d"
1c"
0$!
16
#260000
1!
1$!
06
0P!
1'!
0Q!
0U
01!
00!
0,!
1*!
0(!
0%!
1"!
0V
0>"
07"
00"
0)"
0""
0y!
0r!
0k!
0d!
0]!
1Q!
0O!
0H!
1B!
0o
1J!
0|
0@"
09"
02"
0+"
0$"
0{!
0t!
0m!
0f!
0_!
1}
0Q!
0J!
1!!
0p
1~
0R!
0r
0s
0t
0u
0v
0w
0x
0y
0z
0{
1K!
0}
0~
1;!
0q
1C!
0S!
0:"
03"
0,"
0%"
0|!
0u!
0n!
0g!
0`!
0Y!
1L!
0K!
0C!
1<!
0A"
0#!
1D!
0;"
04"
0-"
0&"
0}!
0v!
0o!
0h!
0a!
0Z!
0L!
0D!
#280000
0!
0$!
16
#290000
b0 "
0c"
06
#300000
1!
1$!
16
0?"
08"
01"
0*"
0#"
0z!
0s!
0l!
0e!
0^!
0W!
1A!
0-!
1+!
0)!
0'!
0=
0k
0i
0g
0e
0c
0a
0_
0]
0[
0Y
0W
1Q
1B"
10!
0?
0!!
1~
1}
1|
1{
1z
1y
1x
1w
1v
1u
1t
1s
1r
1q
0X
1P
1%!
0r
0s
0t
0u
0v
0w
0x
0y
0z
0Z
0|
1R
0X!
0V!
1J!
0@!
19!
0q
0;!
1C!
1K!
1R!
1Y!
1`!
1g!
1n!
1u!
1|!
1%"
1,"
13"
1:"
1A"
1#!
0:"
03"
0,"
0%"
0|!
0u!
0n!
0g!
0`!
1z
0\
0R!
1|
0B!
1:!
0P
0A"
0#!
0<!
1D!
1L!
1S!
1Z!
1a!
1h!
1o!
1v!
1}!
1&"
1-"
14"
1;"
0;"
04"
0-"
0&"
0}!
0v!
0o!
0h!
0a!
1`!
1y
0^
0S!
1R!
15!
1a!
1g!
1x
0`
1S!
16!
1h!
1n!
1w
0b
1o!
1u!
1v
0d
1v!
1|!
1u
0f
1}!
1%"
1t
0h
1&"
1,"
1s
0j
1-"
13"
1r
0l
14"
1:"
1q
1;"
1A"
1#!
#310000
b10 "
b1010 "
1e"
1c"
06
#320000
0!
0$!
16
#340000
1!
1$!
06
1R"
1P"
1O"
1N"
1M"
1L"
1K"
1J"
1I"
1H"
1G"
1F"
1E"
1D"
1C"
1?"
18"
11"
1*"
1#"
1z!
1s!
1l!
1e!
1^!
1W!
1P!
1I!
0A!
18!
1'!
1=
1k
1i
1g
1e
1c
1a
1_
1]
1[
1Y
1W
1U
1S
0Q
14!
0B"
11!
1/!
0*!
0%!
1?
0r
1l
0s
1j
0t
1h
0u
1f
0v
1d
0w
1b
0x
1`
0y
1^
0z
1\
0{
1Z
0|
1X
0}
1V
0~
1T
1!!
0R
05!
1P
1>"
17"
10"
1)"
1""
1y!
1r!
1k!
1d!
1]!
1V!
1Q!
1O!
1H!
1@!
09!
1o
1O
1b"
1`"
1_"
1^"
1]"
1\"
1["
1Z"
1Y"
1X"
1W"
1V"
1U"
1T"
1S"
0q
1%
0:"
1q
03"
1r
0,"
1s
0%"
1t
0|!
1u
0u!
1v
0n!
1w
0g!
1x
0`!
1y
0Y!
1z
0R!
1{
0K!
1|
0C!
1;!
1~
0T
06!
0!!
1R
1@"
19"
12"
1+"
1$"
1{!
1t!
1m!
1f!
1_!
1X!
1p
0A"
0#!
15
13
12
11
10
1/
1.
1-
1,
1+
1*
1)
1(
1'
1&
0;"
1A"
1#!
04"
1:"
0-"
13"
0&"
1,"
0}!
1%"
0v!
1|!
0o!
1u!
0h!
1n!
0a!
1g!
0Z!
1`!
0S!
1Y!
0L!
1R!
0D!
1<!
1C!
1}
0V
0;!
0~
1T
0r
0s
0t
0u
0v
0w
0x
0y
0z
0{
0|
0q
1;"
14"
1-"
1&"
1}!
1v!
1o!
1h!
1a!
1Z!
1S!
1D!
1K!
1|
0X
0<!
0C!
0}
1V
0:"
03"
0,"
0%"
0|!
0u!
0n!
0g!
0`!
0Y!
0R!
0A"
0#!
1L!
1R!
1{
0Z
0D!
0K!
0|
1X
0;"
04"
0-"
0&"
0}!
0v!
0o!
0h!
0a!
0Z!
0S!
1S!
1Y!
1z
0\
0L!
0R!
0{
1Z
1Z!
1`!
1y
0^
0S!
0Y!
0z
1\
1a!
1g!
1x
0`
0Z!
0`!
0y
1^
1h!
1n!
1w
0b
0a!
0g!
0x
1`
1o!
1u!
1v
0d
0h!
0n!
0w
1b
1v!
1|!
1u
0f
0o!
0u!
0v
1d
1}!
1%"
1t
0h
0v!
0|!
0u
1f
1&"
1,"
1s
0j
0}!
0%"
0t
1h
1-"
13"
1r
0l
0&"
0,"
0s
1j
14"
1:"
1q
0-"
03"
0r
1l
1;"
1A"
1#!
04"
0:"
0q
0;"
0A"
0#!
#350000
b1011 "
b11 "
1f"
0c"
16
#360000
0!
0$!
06
#380000
1!
1$!
16
0?"
08"
01"
0*"
0#"
0z!
0s!
0l!
0e!
0^!
0W!
0P!
0I!
08!
0+!
0'!
0=
0@"
0k
09"
0i
02"
0g
0+"
0e
0$"
0c
0{!
0a
0t!
0_
0m!
0]
0f!
0[
0_!
0Y
0X!
0Q!
0U
0J!
0S
0:!
04!
0O
1A"
1:"
13"
1,"
1%"
1|!
1u!
1n!
1g!
1`!
1Y!
1R!
1K!
1;!
07!
12!
00!
0/!
1.!
0"!
1!!
1~
1}
1|
1{
1z
1y
1x
1w
1v
1u
1t
1s
1r
1q
0R
1Q
0?
01!
1%!
0p
0A"
0l
0:"
0j
03"
0h
0,"
0f
0%"
0d
0|!
0b
0u!
0`
0n!
0^
0g!
0\
0`!
0Z
0Y!
0|
0R!
0V
0K!
0~
0T
0;!
0P
1<!
1@"
0>"
07"
12"
00"
0)"
1$"
0""
0y!
1t!
0r!
0k!
1f!
0d!
0]!
1X!
0O!
1J!
0H!
1p
0o
0b"
0`"
0_"
0^"
0]"
0\"
0["
0Z"
0Y"
0X"
0W"
0V"
0U"
0T"
0S"
16!
0!!
1R
19"
1+"
1{!
1m!
1_!
1Q!
1B!
0%
1$
1R!
1C!
1A"
0@"
09"
13"
02"
0+"
1%"
0$"
0{!
1u!
0t!
0m!
1g!
0f!
0_!
1Y!
0Q!
1K!
1T
0J!
0p
1:"
1,"
1|!
1n!
1`!
0{
1Z
05
03
02
01
00
0/
0.
0-
0,
0+
0*
0)
0(
0'
0&
0A"
0r
0:"
0s
03"
0t
0,"
0u
0%"
0v
0|!
0w
0u!
0x
0n!
0y
0g!
0`!
1{
0Z
0R!
0K!
1~
0T
0q
0z
0}
#400000
b1 "
0!
0e"
0$!
06
0<!
#420000
1!
1$!
16
0U!
0?!
13!
1'!
0V!
0W
0@!
0Q
19!
14!
1=!
02!
11!
1,!
0%!
0X!
1|
0X
0B!
1!!
0R
1:!
1P
15!
1Q!
1H!
09!
0|
1R!
0{
1;!
0~
05!
1}
1J!
0:!
0P
0R!
0Y!
0C!
1K!
1~
15!
0!!
1C!
0;!
#440000
b0 "
b10 "
0!
0f"
1e"
0$!
06
06!
1<!
#460000
1!
1$!
16
1>!
1-!
0'!
0N
0L
0=!
04!
12!
01!
0.!
1R!
0C!
05!
1%!
0Q!
0H!
19!
1S!
1L!
0<!
0$
0R!
0}
0J!
1:!
0S!
0K!
0~
1;!
0L!
1<!
#480000
b11 "
0!
1f"
0$!
06
#500000
1!
1$!
16
1?!
03!
1'!
1@!
09!
0;!
17!
15!
02!
1.!
0,!
1(!
0%!
1"!
1B!
0:!
16!
1#!
0"!
1$
1!!
05!
0#!
1;!
#520000
b111 "
b101 "
b100 "
0!
0f"
0e"
1d"
0$!
06
06!
0<!
1D!
#540000
1!
1$!
16
1I!
0-!
1)!
0'!
1E!
07!
0.!
1Q
1C!
0;!
1%!
0!!
1R
0$
1~
#560000
b0 "
0!
0d"
0$!
06
#580000
1!
1$!
16
1'!
0K
0E!
12!
11!
1,!
0%!
1"!
1H!
0B!
0@!
1J!
1!!
0R
1;!
1<!
#600000
0!
0$!
06
#620000
1!
1$!
16
1G!
1-!
0'!
1S
17!
02!
10!
0Q
1K!
0C!
0;!
1%!
0"!
0~
1T
1>"
17"
10"
1)"
1""
1y!
1r!
1k!
1d!
1]!
1V!
1O!
1@!
1o
0!!
1L!
0D!
0<!
1}
#640000
0!
0$!
06
