RAM32x8bit/simulation/qsim/RAM32x8bit.msim.vcd
$comment
	File created using the following command:
		vcd file RAM32x8bit.msim.vcd -direction
$end
$date
	Sun Mar 26 22:25:12 2023
$end
$version
	ModelSim Version 10.1d
$end
$timescale
	1ps
$end
$scope module RAM16x8bit_vlg_vec_tst $end
$var reg 4 ! A [3:0] $end
$var reg 1 " CS $end
$var reg 8 # IN [7:0] $end
$var reg 1 $ RWS $end
$var wire 1 % OUT [7] $end
$var wire 1 & OUT [6] $end
$var wire 1 ' OUT [5] $end
$var wire 1 ( OUT [4] $end
$var wire 1 ) OUT [3] $end
$var wire 1 * OUT [2] $end
$var wire 1 + OUT [1] $end
$var wire 1 , OUT [0] $end
$var wire 1 - sampler $end
$scope module i1 $end
$var wire 1 . gnd $end
$var wire 1 / vcc $end
$var wire 1 0 unknown $end
$var tri1 1 1 devclrn $end
$var tri1 1 2 devpor $end
$var tri1 1 3 devoe $end
$var wire 1 4 inst10|inst1|inst|inst|inst~0_combout $end
$var wire 1 5 inst5~0_combout $end
$var wire 1 6 inst1[7]~0_combout $end
$var wire 1 7 inst1[0]~1_combout $end
$var wire 1 8 inst|inst1|inst|inst|inst~0_combout $end
$var wire 1 9 inst10|inst1|inst|inst4|inst~0_combout $end
$var wire 1 : inst1[6]~2_combout $end
$var wire 1 ; inst|inst1|inst|inst4|inst~0_combout $end
$var wire 1 < inst10|inst1|inst|inst5|inst~0_combout $end
$var wire 1 = inst1[5]~3_combout $end
$var wire 1 > inst|inst1|inst|inst5|inst~0_combout $end
$var wire 1 ? inst10|inst1|inst|inst6|inst~0_combout $end
$var wire 1 @ inst1[4]~4_combout $end
$var wire 1 A inst|inst1|inst|inst6|inst~0_combout $end
$var wire 1 B inst10|inst1|inst1|inst|inst~0_combout $end
$var wire 1 C inst1[3]~5_combout $end
$var wire 1 D inst|inst1|inst1|inst|inst~0_combout $end
$var wire 1 E inst10|inst1|inst1|inst4|inst~0_combout $end
$var wire 1 F inst1[2]~6_combout $end
$var wire 1 G inst|inst1|inst1|inst4|inst~0_combout $end
$var wire 1 H inst9|inst1|inst1|inst4|inst~0_combout $end
$var wire 1 I inst10|inst1|inst1|inst5|inst~0_combout $end
$var wire 1 J inst1[1]~7_combout $end
$var wire 1 K inst|inst1|inst1|inst5|inst~0_combout $end
$var wire 1 L inst9|inst1|inst1|inst5|inst~0_combout $end
$var wire 1 M inst10|inst1|inst1|inst6|inst~0_combout $end
$var wire 1 N inst1[0]~8_combout $end
$var wire 1 O inst|inst1|inst1|inst6|inst~0_combout $end
$var wire 1 P inst9|inst1|inst1|inst6|inst~0_combout $end
$var wire 1 Q inst7|inst1|inst|inst|inst2~0_combout $end
$var wire 1 R inst10|inst1|inst|inst|inst2~combout $end
$var wire 1 S inst10|inst|inst|inst|inst2~combout $end
$var wire 1 T inst10|inst3|inst|inst|inst2~combout $end
$var wire 1 U inst|inst1|inst|inst|inst2~0_combout $end
$var wire 1 V inst|inst3|inst|inst|inst2~1_combout $end
$var wire 1 W inst9|inst1|inst|inst|inst2~0_combout $end
$var wire 1 X inst7|inst2|inst|inst|inst2~2_combout $end
$var wire 1 Y inst10|inst2|inst|inst|inst2~combout $end
$var wire 1 Z inst1[0]~9_combout $end
$var wire 1 [ inst1[0]~10_combout $end
$var wire 1 \ inst1[1]~11_combout $end
$var wire 1 ] inst1[1]~12_combout $end
$var wire 1 ^ inst1[2]~13_combout $end
$var wire 1 _ inst1[2]~14_combout $end
$var wire 1 ` inst1[3]~15_combout $end
$var wire 1 a inst1[3]~16_combout $end
$var wire 1 b inst1[4]~17_combout $end
$var wire 1 c inst1[4]~18_combout $end
$var wire 1 d inst1[5]~19_combout $end
$var wire 1 e inst1[5]~20_combout $end
$var wire 1 f inst1[6]~21_combout $end
$var wire 1 g inst1[6]~22_combout $end
$var wire 1 h inst1[7]~23_combout $end
$var wire 1 i inst1[7]~24_combout $end
$var wire 1 j inst7|inst2|inst|inst|inst0~combout $end
$var wire 1 k inst7|inst1|inst|inst|inst0~combout $end
$var wire 1 l inst10|inst1|inst|inst|inst0~combout $end
$var wire 1 m inst10|inst2|inst|inst|inst0~combout $end
$var wire 1 n inst10|inst|inst|inst|inst0~combout $end
$var wire 1 o inst10|inst3|inst|inst|inst0~combout $end
$var wire 1 p inst|inst1|inst|inst|inst0~combout $end
$var wire 1 q inst|inst3|inst|inst|inst0~combout $end
$var wire 1 r inst|inst|inst|inst|inst0~combout $end
$var wire 1 s inst9|inst2|inst|inst|inst0~combout $end
$var wire 1 t inst9|inst1|inst|inst|inst0~combout $end
$var wire 1 u inst7|inst2|inst|inst4|inst0~combout $end
$var wire 1 v inst7|inst1|inst|inst4|inst0~combout $end
$var wire 1 w inst10|inst1|inst|inst4|inst0~combout $end
$var wire 1 x inst10|inst2|inst|inst4|inst0~combout $end
$var wire 1 y inst10|inst|inst|inst4|inst0~combout $end
$var wire 1 z inst10|inst3|inst|inst4|inst0~combout $end
$var wire 1 { inst|inst1|inst|inst4|inst0~combout $end
$var wire 1 | inst|inst3|inst|inst4|inst0~combout $end
$var wire 1 } inst|inst|inst|inst4|inst0~combout $end
$var wire 1 ~ inst9|inst2|inst|inst4|inst0~combout $end
$var wire 1 !! inst9|inst1|inst|inst4|inst0~combout $end
$var wire 1 "! inst7|inst2|inst|inst5|inst0~combout $end
$var wire 1 #! inst7|inst1|inst|inst5|inst0~combout $end
$var wire 1 $! inst10|inst1|inst|inst5|inst0~combout $end
$var wire 1 %! inst10|inst2|inst|inst5|inst0~combout $end
$var wire 1 &! inst10|inst|inst|inst5|inst0~combout $end
$var wire 1 '! inst10|inst3|inst|inst5|inst0~combout $end
$var wire 1 (! inst|inst1|inst|inst5|inst0~combout $end
$var wire 1 )! inst|inst3|inst|inst5|inst0~combout $end
$var wire 1 *! inst|inst|inst|inst5|inst0~combout $end
$var wire 1 +! inst9|inst2|inst|inst5|inst0~combout $end
$var wire 1 ,! inst9|inst1|inst|inst5|inst0~combout $end
$var wire 1 -! inst7|inst2|inst|inst6|inst0~combout $end
$var wire 1 .! inst7|inst1|inst|inst6|inst0~combout $end
$var wire 1 /! inst10|inst1|inst|inst6|inst0~combout $end
$var wire 1 0! inst10|inst2|inst|inst6|inst0~combout $end
$var wire 1 1! inst10|inst|inst|inst6|inst0~combout $end
$var wire 1 2! inst10|inst3|inst|inst6|inst0~combout $end
$var wire 1 3! inst|inst1|inst|inst6|inst0~combout $end
$var wire 1 4! inst|inst3|inst|inst6|inst0~combout $end
$var wire 1 5! inst|inst|inst|inst6|inst0~combout $end
$var wire 1 6! inst9|inst2|inst|inst6|inst0~combout $end
$var wire 1 7! inst9|inst1|inst|inst6|inst0~combout $end
$var wire 1 8! inst7|inst2|inst1|inst|inst0~combout $end
$var wire 1 9! inst7|inst1|inst1|inst|inst0~combout $end
$var wire 1 :! inst10|inst1|inst1|inst|inst0~combout $end
$var wire 1 ;! inst10|inst2|inst1|inst|inst0~combout $end
$var wire 1 <! inst10|inst|inst1|inst|inst0~combout $end
$var wire 1 =! inst10|inst3|inst1|inst|inst0~combout $end
$var wire 1 >! inst|inst1|inst1|inst|inst0~combout $end
$var wire 1 ?! inst|inst3|inst1|inst|inst0~combout $end
$var wire 1 @! inst|inst|inst1|inst|inst0~combout $end
$var wire 1 A! inst9|inst2|inst1|inst|inst0~combout $end
$var wire 1 B! inst9|inst1|inst1|inst|inst0~combout $end
$var wire 1 C! inst7|inst2|inst1|inst4|inst0~combout $end
$var wire 1 D! inst7|inst1|inst1|inst4|inst0~combout $end
$var wire 1 E! inst10|inst1|inst1|inst4|inst0~combout $end
$var wire 1 F! inst10|inst2|inst1|inst4|inst0~combout $end
$var wire 1 G! inst10|inst|inst1|inst4|inst0~combout $end
$var wire 1 H! inst10|inst3|inst1|inst4|inst0~combout $end
$var wire 1 I! inst|inst1|inst1|inst4|inst0~combout $end
$var wire 1 J! inst|inst3|inst1|inst4|inst0~combout $end
$var wire 1 K! inst9|inst1|inst1|inst4|inst0~combout $end
$var wire 1 L! inst9|inst3|inst1|inst4|inst0~combout $end
$var wire 1 M! inst7|inst2|inst1|inst5|inst0~combout $end
$var wire 1 N! inst7|inst1|inst1|inst5|inst0~combout $end
$var wire 1 O! inst10|inst1|inst1|inst5|inst0~combout $end
$var wire 1 P! inst10|inst2|inst1|inst5|inst0~combout $end
$var wire 1 Q! inst10|inst|inst1|inst5|inst0~combout $end
$var wire 1 R! inst10|inst3|inst1|inst5|inst0~combout $end
$var wire 1 S! inst|inst1|inst1|inst5|inst0~combout $end
$var wire 1 T! inst|inst3|inst1|inst5|inst0~combout $end
$var wire 1 U! inst9|inst1|inst1|inst5|inst0~combout $end
$var wire 1 V! inst9|inst3|inst1|inst5|inst0~combout $end
$var wire 1 W! inst7|inst2|inst1|inst6|inst0~combout $end
$var wire 1 X! inst7|inst1|inst1|inst6|inst0~combout $end
$var wire 1 Y! inst10|inst1|inst1|inst6|inst0~combout $end
$var wire 1 Z! inst10|inst2|inst1|inst6|inst0~combout $end
$var wire 1 [! inst10|inst|inst1|inst6|inst0~combout $end
$var wire 1 \! inst10|inst3|inst1|inst6|inst0~combout $end
$var wire 1 ]! inst|inst1|inst1|inst6|inst0~combout $end
$var wire 1 ^! inst|inst3|inst1|inst6|inst0~combout $end
$var wire 1 _! inst9|inst1|inst1|inst6|inst0~combout $end
$var wire 1 `! inst9|inst3|inst1|inst6|inst0~combout $end
$var wire 1 a! CS~combout $end
$var wire 1 b! inst70~0_combout $end
$var wire 1 c! inst10|inst35~0_combout $end
$var wire 1 d! RWS~combout $end
$var wire 1 e! inst7|inst3|inst|inst|inst2~0_combout $end
$var wire 1 f! inst7|inst3|inst|inst|inst0~combout $end
$var wire 1 g! inst7|inst|inst|inst|inst2~0_combout $end
$var wire 1 h! inst7|inst|inst|inst|inst0~combout $end
$var wire 1 i! inst3[7]~0_combout $end
$var wire 1 j! inst3[7]~1_combout $end
$var wire 1 k! inst3[7]~2_combout $end
$var wire 1 l! inst80~0_combout $end
$var wire 1 m! inst|inst3|inst|inst|inst2~0_combout $end
$var wire 1 n! inst|inst2|inst|inst|inst2~2_combout $end
$var wire 1 o! inst|inst2|inst|inst|inst0~combout $end
$var wire 1 p! inst6[7]~8_combout $end
$var wire 1 q! inst6[7]~9_combout $end
$var wire 1 r! inst6[7]~10_combout $end
$var wire 1 s! inst6[7]~11_combout $end
$var wire 1 t! inst60~0_combout $end
$var wire 1 u! inst9|inst35~4_combout $end
$var wire 1 v! inst9|inst3|inst|inst|inst2~0_combout $end
$var wire 1 w! inst9|inst|inst|inst|inst2~0_combout $end
$var wire 1 x! inst9|inst|inst|inst|inst0~combout $end
$var wire 1 y! inst9|inst3|inst|inst|inst2~1_combout $end
$var wire 1 z! inst9|inst3|inst|inst|inst0~combout $end
$var wire 1 {! inst2[7]~0_combout $end
$var wire 1 |! inst2[7]~1_combout $end
$var wire 1 }! inst2[7]~2_combout $end
$var wire 1 ~! inst6[7]~12_combout $end
$var wire 1 !" inst7|inst3|inst|inst4|inst0~combout $end
$var wire 1 "" inst7|inst|inst|inst4|inst0~combout $end
$var wire 1 #" inst3[6]~3_combout $end
$var wire 1 $" inst3[6]~4_combout $end
$var wire 1 %" inst3[6]~5_combout $end
$var wire 1 &" inst|inst2|inst|inst4|inst0~combout $end
$var wire 1 '" inst6[6]~13_combout $end
$var wire 1 (" inst6[6]~14_combout $end
$var wire 1 )" inst6[6]~15_combout $end
$var wire 1 *" inst6[6]~16_combout $end
$var wire 1 +" inst9|inst|inst|inst4|inst0~combout $end
$var wire 1 ," inst9|inst3|inst|inst4|inst0~combout $end
$var wire 1 -" inst2[6]~3_combout $end
$var wire 1 ." inst2[6]~4_combout $end
$var wire 1 /" inst2[6]~5_combout $end
$var wire 1 0" inst6[6]~17_combout $end
$var wire 1 1" inst7|inst3|inst|inst5|inst0~combout $end
$var wire 1 2" inst7|inst|inst|inst5|inst0~combout $end
$var wire 1 3" inst3[5]~6_combout $end
$var wire 1 4" inst3[5]~7_combout $end
$var wire 1 5" inst3[5]~8_combout $end
$var wire 1 6" inst|inst2|inst|inst5|inst0~combout $end
$var wire 1 7" inst6[5]~18_combout $end
$var wire 1 8" inst6[5]~19_combout $end
$var wire 1 9" inst6[5]~20_combout $end
$var wire 1 :" inst6[5]~21_combout $end
$var wire 1 ;" inst9|inst|inst|inst5|inst0~combout $end
$var wire 1 <" inst9|inst3|inst|inst5|inst0~combout $end
$var wire 1 =" inst2[5]~6_combout $end
$var wire 1 >" inst2[5]~7_combout $end
$var wire 1 ?" inst2[5]~8_combout $end
$var wire 1 @" inst6[5]~22_combout $end
$var wire 1 A" inst7|inst3|inst|inst6|inst0~combout $end
$var wire 1 B" inst7|inst|inst|inst6|inst0~combout $end
$var wire 1 C" inst3[4]~9_combout $end
$var wire 1 D" inst3[4]~10_combout $end
$var wire 1 E" inst3[4]~11_combout $end
$var wire 1 F" inst|inst2|inst|inst6|inst0~combout $end
$var wire 1 G" inst6[4]~23_combout $end
$var wire 1 H" inst6[4]~24_combout $end
$var wire 1 I" inst6[4]~25_combout $end
$var wire 1 J" inst6[4]~26_combout $end
$var wire 1 K" inst9|inst|inst|inst6|inst0~combout $end
$var wire 1 L" inst9|inst3|inst|inst6|inst0~combout $end
$var wire 1 M" inst2[4]~9_combout $end
$var wire 1 N" inst2[4]~10_combout $end
$var wire 1 O" inst2[4]~11_combout $end
$var wire 1 P" inst6[4]~27_combout $end
$var wire 1 Q" inst7|inst3|inst1|inst|inst0~combout $end
$var wire 1 R" inst7|inst|inst1|inst|inst0~combout $end
$var wire 1 S" inst3[3]~12_combout $end
$var wire 1 T" inst3[3]~13_combout $end
$var wire 1 U" inst3[3]~14_combout $end
$var wire 1 V" inst|inst2|inst1|inst|inst0~combout $end
$var wire 1 W" inst6[3]~28_combout $end
$var wire 1 X" inst6[3]~29_combout $end
$var wire 1 Y" inst6[3]~30_combout $end
$var wire 1 Z" inst6[3]~31_combout $end
$var wire 1 [" inst9|inst|inst1|inst|inst0~combout $end
$var wire 1 \" inst9|inst3|inst1|inst|inst0~combout $end
$var wire 1 ]" inst2[3]~12_combout $end
$var wire 1 ^" inst2[3]~13_combout $end
$var wire 1 _" inst2[3]~14_combout $end
$var wire 1 `" inst6[3]~32_combout $end
$var wire 1 a" inst7|inst3|inst1|inst4|inst0~combout $end
$var wire 1 b" inst7|inst|inst1|inst4|inst0~combout $end
$var wire 1 c" inst3[2]~15_combout $end
$var wire 1 d" inst3[2]~16_combout $end
$var wire 1 e" inst3[2]~17_combout $end
$var wire 1 f" inst|inst2|inst1|inst4|inst0~combout $end
$var wire 1 g" inst6[2]~33_combout $end
$var wire 1 h" inst|inst|inst|inst|inst2~0_combout $end
$var wire 1 i" inst|inst|inst1|inst4|inst0~combout $end
$var wire 1 j" inst|inst37~0_combout $end
$var wire 1 k" inst|inst34~0_combout $end
$var wire 1 l" inst6[2]~34_combout $end
$var wire 1 m" inst6[2]~35_combout $end
$var wire 1 n" inst9|inst|inst1|inst4|inst0~combout $end
$var wire 1 o" inst9|inst37~0_combout $end
$var wire 1 p" inst9|inst34~0_combout $end
$var wire 1 q" inst2[2]~15_combout $end
$var wire 1 r" inst9|inst2|inst|inst|inst2~2_combout $end
$var wire 1 s" inst9|inst2|inst1|inst4|inst0~combout $end
$var wire 1 t" inst2[2]~16_combout $end
$var wire 1 u" inst6[2]~36_combout $end
$var wire 1 v" inst7|inst3|inst1|inst5|inst0~combout $end
$var wire 1 w" inst7|inst|inst1|inst5|inst0~combout $end
$var wire 1 x" inst3[1]~18_combout $end
$var wire 1 y" inst3[1]~19_combout $end
$var wire 1 z" inst3[1]~20_combout $end
$var wire 1 {" inst|inst2|inst1|inst5|inst0~combout $end
$var wire 1 |" inst6[1]~37_combout $end
$var wire 1 }" inst|inst|inst1|inst5|inst0~combout $end
$var wire 1 ~" inst6[1]~38_combout $end
$var wire 1 !# inst6[1]~39_combout $end
$var wire 1 "# inst9|inst|inst1|inst5|inst0~combout $end
$var wire 1 ## inst2[1]~17_combout $end
$var wire 1 $# inst9|inst2|inst1|inst5|inst0~combout $end
$var wire 1 %# inst2[1]~18_combout $end
$var wire 1 &# inst6[1]~40_combout $end
$var wire 1 '# inst7|inst3|inst1|inst6|inst0~combout $end
$var wire 1 (# inst7|inst|inst1|inst6|inst0~combout $end
$var wire 1 )# inst3[0]~21_combout $end
$var wire 1 *# inst3[0]~22_combout $end
$var wire 1 +# inst3[0]~23_combout $end
$var wire 1 ,# inst|inst2|inst1|inst6|inst0~combout $end
$var wire 1 -# inst6[0]~41_combout $end
$var wire 1 .# inst|inst|inst1|inst6|inst0~combout $end
$var wire 1 /# inst6[0]~42_combout $end
$var wire 1 0# inst6[0]~43_combout $end
$var wire 1 1# inst9|inst|inst1|inst6|inst0~combout $end
$var wire 1 2# inst2[0]~19_combout $end
$var wire 1 3# inst9|inst2|inst1|inst6|inst0~combout $end
$var wire 1 4# inst2[0]~20_combout $end
$var wire 1 5# inst6[0]~44_combout $end
$var wire 1 6# IN~combout [7] $end
$var wire 1 7# IN~combout [6] $end
$var wire 1 8# IN~combout [5] $end
$var wire 1 9# IN~combout [4] $end
$var wire 1 :# IN~combout [3] $end
$var wire 1 ;# IN~combout [2] $end
$var wire 1 <# IN~combout [1] $end
$var wire 1 =# IN~combout [0] $end
$var wire 1 ># A~combout [3] $end
$var wire 1 ?# A~combout [2] $end
$var wire 1 @# A~combout [1] $end
$var wire 1 A# A~combout [0] $end
$upscope $end
$upscope $end
$enddefinitions $end
#0
$dumpvars
b0 !
1"
b0 #
0$
x,
x+
x*
x)
x(
x'
x&
x%
x-
0.
1/
x0
11
12
13
14
15
16
17
18
19
1:
1;
1<
1=
1>
1?
1@
1A
1B
1C
1D
1E
1F
1G
1H
1I
1J
1K
1L
1M
1N
1O
1P
0Q
0R
0S
0T
0U
0V
0W
0X
0Y
xZ
x[
x\
x]
x^
x_
x`
xa
xb
xc
xd
xe
xf
xg
xh
xi
xj
xk
xl
xm
xn
xo
xp
xq
xr
xs
xt
xu
xv
xw
xx
xy
xz
x{
x|
x}
x~
x!!
x"!
x#!
x$!
x%!
x&!
x'!
x(!
x)!
x*!
x+!
x,!
x-!
x.!
x/!
x0!
x1!
x2!
x3!
x4!
x5!
x6!
x7!
x8!
x9!
x:!
x;!
x<!
x=!
x>!
x?!
x@!
xA!
xB!
xC!
xD!
xE!
xF!
xG!
xH!
xI!
xJ!
xK!
xL!
xM!
xN!
xO!
xP!
xQ!
xR!
xS!
xT!
xU!
xV!
xW!
xX!
xY!
xZ!
x[!
x\!
x]!
x^!
x_!
x`!
1a!
0b!
0c!
0d!
0e!
xf!
0g!
xh!
xi!
xj!
1k!
0l!
0m!
0n!
xo!
1p!
xq!
1r!
xs!
0t!
0u!
0v!
0w!
xx!
0y!
xz!
0{!
0|!
1}!
x~!
x!"
x""
x#"
x$"
1%"
x&"
1'"
x("
1)"
x*"
x+"
x,"
0-"
0."
1/"
x0"
x1"
x2"
x3"
x4"
15"
x6"
17"
x8"
19"
x:"
x;"
x<"
0="
0>"
1?"
x@"
xA"
xB"
xC"
xD"
1E"
xF"
1G"
xH"
1I"
xJ"
xK"
xL"
0M"
0N"
1O"
xP"
xQ"
xR"
xS"
xT"
1U"
xV"
1W"
xX"
1Y"
xZ"
x["
x\"
0]"
0^"
1_"
x`"
xa"
xb"
xc"
xd"
1e"
xf"
1g"
0h"
xi"
0j"
0k"
1l"
xm"
xn"
0o"
0p"
1q"
0r"
xs"
1t"
xu"
xv"
xw"
xx"
xy"
1z"
x{"
1|"
x}"
1~"
x!#
x"#
1##
x$#
1%#
x&#
x'#
x(#
x)#
x*#
1+#
x,#
1-#
x.#
1/#
x0#
x1#
12#
x3#
14#
x5#
0=#
0<#
0;#
0:#
09#
08#
07#
06#
0A#
0@#
0?#
0>#
$end
#10000
1$
1d!
0-
1S
0[!
0Q!
0G!
0<!
01!
0&!
0y
0n
0Z
0\
0^
0`
0b
0d
0f
0h
0[
0]
0_
0a
0c
0e
0g
0i
00#
0!#
0m"
0Z"
0J"
0:"
0*"
0s!
05#
0&#
0u"
0`"
0P"
0@"
00"
0~!
0,
0+
0*
0)
0(
0'
0&
0%
#20000
b1 #
1=#
1-
1[!
1Z
1[
10#
15#
1,
#25000
b1 !
1A#
0-
x^"
1X"
xN"
1H"
x>"
18"
x."
1("
x|!
1q!
1h
1f
1d
1b
1`
1^
1\
0S
1R
xP
xO
xM
xL
xK
xI
xH
xG
xE
xD
xB
xA
x?
x>
x<
x;
x9
x8
x4
x_"
xO"
x?"
x/"
x}!
1i
1g
1e
1c
1a
1_
1]
1Y!
0O!
0E!
0:!
0/!
0$!
0w
0l
x4#
x-#
xN
x%#
x|"
xJ
xt"
xg"
xF
xW"
xC
xG"
x@
x7"
x=
x'"
x:
xp!
x6
1s!
1*"
1:"
1J"
1Z"
1m"
1!#
1M
0I
0E
0B
0?
0<
09
04
x[
x]
x_
xa
xc
xe
xg
xi
1~!
10"
1@"
1P"
1`"
1u"
1&#
1N
0J
0F
0C
0@
0=
0:
06
x0#
x!#
xm"
xZ"
xJ"
x:"
x*"
xs!
1[
0]
0_
0a
0c
0e
0g
0i
x5#
x&#
xu"
x`"
xP"
x@"
x0"
x~!
1%
1&
1'
1(
1)
1*
1+
10#
0!#
0m"
0Z"
0J"
0:"
0*"
0s!
x,
x+
x*
x)
x(
x'
x&
x%
15#
0&#
0u"
0`"
0P"
0@"
00"
0~!
1,
0+
0*
0)
0(
0'
0&
0%
#40000
b11 #
b10 #
0=#
1<#
1-
0Y!
1O!
0M
1I
0N
1J
0[
1]
00#
1!#
05#
1&#
0,
1+
#50000
b11 !
b10 !
0A#
1@#
0-
1*#
1y"
1d"
0^"
1T"
0N"
1D"
0>"
14"
0."
1$"
0|!
1j!
1c!
1Y
0R
1P
1O
1M
1L
1K
1H
1G
1E
1D
1B
1A
1?
1>
1<
1;
19
18
14
1_"
1O"
1?"
1/"
1}!
1-#
1|"
1g"
1W"
1G"
17"
1'"
1p!
xN
xJ
xF
xC
x@
x=
x:
x6
0Z!
1P!
0F!
0;!
00!
0%!
0x
0m
14#
1%#
1t"
x[
x]
x_
xa
xc
xe
xg
xi
0N
1J
0F
0C
0@
0=
0:
06
x0#
x!#
xm"
xZ"
xJ"
x:"
x*"
xs!
0[
1]
0_
0a
0c
0e
0g
0i
x5#
x&#
xu"
x`"
xP"
x@"
x0"
x~!
00#
1!#
0m"
0Z"
0J"
0:"
0*"
0s!
05#
1&#
0u"
0`"
0P"
0@"
00"
0~!
x,
x+
x*
x)
x(
x'
x&
x%
0,
1+
0*
0)
0(
0'
0&
0%
#60000
b11 #
1=#
1-
1Z!
1N
1[
10#
15#
1,
#75000
b11 !
1A#
0-
x*#
xy"
xd"
0X"
xT"
0H"
xD"
08"
x4"
0("
x$"
0q!
xj!
0c!
xh
xf
xd
xb
x`
x^
x\
xZ
0Y
1T
1F
1C
1@
1=
1:
16
x]
x[
1\!
1R!
0H!
0=!
02!
0'!
0z
0o
x_
xa
xc
xe
xg
xi
x!#
x0#
1Z
1\
0^
0`
0b
0d
0f
0h
xm"
xZ"
xJ"
x:"
x*"
xs!
x&#
x5#
1[
1]
0_
0a
0c
0e
0g
0i
xu"
x`"
xP"
x@"
x0"
x~!
10#
1!#
0m"
0Z"
0J"
0:"
0*"
0s!
x+
x,
15#
1&#
0u"
0`"
0P"
0@"
00"
0~!
x*
x)
x(
x'
x&
x%
1,
1+
0*
0)
0(
0'
0&
0%
#80000
b111 #
b101 #
b100 #
0=#
0<#
1;#
1-
0\!
0R!
1H!
0Z
0\
1^
0[
0]
1_
00#
0!#
1m"
05#
0&#
1u"
0,
0+
1*
#100000
b111 !
b101 !
b100 !
b101 #
1=#
0A#
0@#
1?#
0-
1\!
xX"
xH"
x8"
x("
xq!
0^
1Z
0T
1S
1v!
1t!
07
05
1[
1G!
1w!
1o"
x]"
xM"
x="
x-"
x{!
1i
1g
1e
1c
1a
1]
0S
10#
1^
11#
0"#
1n"
0["
0K"
0;"
0+"
0x!
x2#
x##
xq"
x^"
xN"
x>"
x."
x|!
1s!
1*"
1:"
1J"
1Z"
1!#
15#
12#
0##
1q"
1]"
1M"
1="
1-"
1{!
x4#
x%#
xt"
x_"
xO"
x?"
x/"
x}!
1~!
10"
1@"
1P"
1`"
1&#
14#
0%#
1t"
1^"
1N"
1>"
1."
1|!
x5#
x&#
xu"
x`"
xP"
x@"
x0"
x~!
1,
1%
1&
1'
1(
1)
1+
15#
0&#
1u"
0_"
0O"
0?"
0/"
0}!
x,
x+
x*
x)
x(
x'
x&
x%
0`"
0P"
0@"
00"
0~!
1,
0+
1*
0)
0(
0'
0&
0%
#120000
b111 #
b110 #
0=#
1<#
1-
01#
1"#
02#
1##
04#
1%#
05#
1&#
0,
1+
#125000
b101 !
1A#
0-
0o"
x^"
1X"
xN"
1H"
x>"
18"
x."
1("
x|!
0w!
1q!
1h
1f
1d
1b
1`
1\
1W
xP
xO
0M
xL
xK
xH
xG
0E
xD
0B
xA
0?
x>
0<
x;
09
x8
04
12#
x_"
xO"
x?"
x/"
x}!
0_!
1U!
1K!
0B!
07!
0,!
0!!
0t
x-#
0N
x%#
x|"
xt"
xg"
0F
xW"
0C
xG"
0@
x7"
0=
x'"
0:
xp!
06
x4#
x`"
xP"
x@"
x0"
x~!
0P
1L
1H
1^"
1N"
1>"
1."
1|!
x&#
xu"
x5#
04#
1%#
1t"
0_"
0O"
0?"
0/"
0}!
x)
x(
x'
x&
x%
x+
x*
05#
1&#
1u"
0`"
0P"
0@"
00"
0~!
x,
0,
1+
1*
0)
0(
0'
0&
0%
#140000
b111 #
1=#
1-
1_!
1P
14#
15#
1,
#150000
b111 !
b110 !
0A#
1@#
0-
1*#
1y"
1r"
1d"
0^"
1T"
0N"
1D"
0>"
14"
0."
1$"
0|!
1u!
1j!
1c!
0W
1O
1M
1K
1G
1E
1D
1B
1A
1?
1>
1<
1;
19
18
14
x]"
xM"
x="
x-"
x{!
13#
1$#
1s"
0A!
06!
0+!
0~
0s
x_"
xO"
x?"
x/"
x}!
x4#
x%#
xt"
1-#
1|"
1g"
1W"
1G"
17"
1'"
1p!
1N
1F
1C
1@
1=
1:
16
14#
1%#
1t"
0_"
0O"
0?"
0/"
0}!
x`"
xP"
x@"
x0"
x~!
x5#
x&#
xu"
15#
1&#
1u"
0`"
0P"
0@"
00"
0~!
x)
x(
x'
x&
x%
x,
x+
x*
1,
1+
1*
0)
0(
0'
0&
0%
#160000
b1111 #
b1011 #
b1001 #
b1000 #
0=#
0<#
0;#
1:#
1-
03#
0$#
0s"
1A!
04#
0%#
0t"
1_"
05#
0&#
0u"
1`"
0,
0+
0*
1)
#175000
b111 !
1A#
0-
x*#
xy"
0r"
1p"
xd"
x^"
0X"
xT"
xN"
0H"
xD"
x>"
08"
x4"
x."
0("
x$"
x|!
1y!
0u!
0q!
xj!
0c!
0h
0f
0d
0b
0`
0\
x2#
x##
xq"
x_"
xO"
x?"
x/"
x}!
1\"
0L"
0<"
0,"
0z!
0`!
0V!
0L!
14#
1%#
1t"
x4#
x%#
xt"
x`"
xP"
x@"
x0"
x~!
0]"
1M"
1="
1-"
1{!
02#
0##
0q"
15#
1&#
1u"
x5#
x&#
xu"
0^"
1N"
1>"
1."
1|!
04#
0%#
0t"
x)
x(
x'
x&
x%
1,
1+
1*
1_"
0O"
0?"
0/"
0}!
05#
0&#
0u"
x,
x+
x*
1`"
0P"
0@"
00"
0~!
0,
0+
0*
1)
0(
0'
0&
0%
#180000
b1001 #
1=#
1-
1`!
12#
14#
15#
1,
#200000
b1111 !
b1011 !
b1001 !
b1011 #
b1000 !
b1010 #
0=#
1<#
0A#
0@#
0?#
1>#
0-
0`!
1V!
0p"
1o"
xX"
xH"
x8"
x("
0y!
1w!
xq!
1]"
0v!
0t!
1b!
02#
1##
1q"
0n"
1["
1^"
0w!
1&#
1u"
0o"
0]"
1P"
0M"
1@"
0="
10"
0-"
1~!
0{!
x+#
xz"
xe"
xU"
xE"
x5"
x%"
xk!
1g!
04#
1%#
1t"
0_"
12#
0^"
0N"
0>"
0."
0|!
x5#
x&#
xu"
x`"
xP"
x@"
x0"
x~!
0(#
1w"
0b"
1R"
0B"
02"
0""
0h!
1+
1*
1(
1'
1&
1%
14#
1_"
1O"
1?"
1/"
1}!
0)#
1x"
0c"
1S"
0C"
03"
0#"
0i!
x,
x+
x*
x)
x(
x'
x&
x%
0*#
1y"
0d"
1T"
0D"
04"
0$"
0j!
0+#
1z"
0e"
1U"
0E"
05"
0%"
0k!
05#
1&#
0u"
1`"
0P"
0@"
00"
0~!
0,
1+
0*
1)
0(
0'
0&
0%
#220000
b1011 #
1=#
1-
1(#
1)#
1*#
1+#
15#
1,
