LAB2/MOORE_MSSV/simulation/qsim/MOORE_MSSV.msim.vcd
$comment
	File created using the following command:
		vcd file MOORE_MSSV.msim.vcd -direction
$end
$date
	Tue Apr 18 15:50:35 2023
$end
$version
	ModelSim Version 10.1d
$end
$timescale
	1ps
$end
$scope module MOORE_MSSV_vlg_vec_tst $end
$var reg 1 ! CLK $end
$var reg 3 " I [2:0] $end
$var wire 1 # OUTPUT $end
$var wire 1 $ Q [3] $end
$var wire 1 % Q [2] $end
$var wire 1 & Q [1] $end
$var wire 1 ' Q [0] $end
$var wire 1 ( sampler $end
$scope module i1 $end
$var wire 1 ) gnd $end
$var wire 1 * vcc $end
$var wire 1 + unknown $end
$var tri1 1 , devclrn $end
$var tri1 1 - devpor $end
$var tri1 1 . devoe $end
$var wire 1 / inst|inst22~combout $end
$var wire 1 0 inst|inst28~2_combout $end
$var wire 1 1 inst|inst15~0_combout $end
$var wire 1 2 inst|inst9~0_combout $end
$var wire 1 3 inst|inst15~3_combout $end
$var wire 1 4 CLK~combout $end
$var wire 1 5 inst|inst22~1_combout $end
$var wire 1 6 inst|inst22~0_combout $end
$var wire 1 7 inst|inst19~0_combout $end
$var wire 1 8 inst|inst9~1_combout $end
$var wire 1 9 inst1~regout $end
$var wire 1 : inst|inst27~2_combout $end
$var wire 1 ; inst|inst27~3_combout $end
$var wire 1 < inst|inst19~1_combout $end
$var wire 1 = inst3~regout $end
$var wire 1 > inst|inst15~1_combout $end
$var wire 1 ? inst|inst15~2_combout $end
$var wire 1 @ inst|inst15~4_combout $end
$var wire 1 A inst2~regout $end
$var wire 1 B inst|inst28~0_combout $end
$var wire 1 C inst|inst28~1_combout $end
$var wire 1 D inst|inst28~3_combout $end
$var wire 1 E inst|inst28~4_combout $end
$var wire 1 F inst4~regout $end
$var wire 1 G inst5~combout $end
$var wire 1 H I~combout [2] $end
$var wire 1 I I~combout [1] $end
$var wire 1 J I~combout [0] $end
$upscope $end
$upscope $end
$enddefinitions $end
#0
$dumpvars
0!
b0 "
0#
0'
0&
0%
0$
x(
0)
1*
x+
1,
1-
1.
0/
00
01
02
03
04
05
06
07
08
09
0:
0;
0<
0=
0>
0?
0@
0A
1B
0C
0D
0E
0F
0G
0J
0I
0H
$end
#10000
b10 "
1I
0(
1C
11
1E
#20000
1!
14
1(
1F
1'
#40000
b0 "
0!
0I
04
0(
0C
01
0E
#50000
b1 "
1J
1(
15
10
1@
1D
1E
#60000
1!
14
0(
1A
0D
1>
1%
0E
0@
#70000
b0 "
0J
1(
05
12
00
#80000
0!
04
0(
#90000
b100 "
b101 "
1J
1H
1(
15
02
10
0>
1@
#100000
1!
14
0(
0F
05
00
0'
0@
#110000
b1 "
b0 "
0J
0H
1(
12
1>
#120000
b10 "
0!
1I
04
0(
1C
18
11
1E
13
1@
#140000
1!
14
1(
1F
19
08
17
03
1?
16
02
1'
1$
1<
0@
13
1@
#150000
b0 "
0I
0(
0C
07
01
0E
0<
03
0@
#160000
0!
04
1(
#170000
b10 "
1I
0(
1C
17
11
1E
1<
13
1@
#180000
1!
14
1(
1=
09
0?
0>
06
12
1&
0$
03
0<
0@
#190000
b0 "
0I
0(
0C
18
07
01
0E
#200000
0!
04
1(
#220000
1!
14
0(
0F
0A
0=
19
08
1?
02
16
0'
0%
0&
1$
#240000
b1 "
0!
1J
04
1(
17
1<
#260000
1!
14
0(
1=
09
0B
1:
06
1&
0$
0<
#270000
b0 "
0J
1(
07
#280000
0!
04
0(
#290000
b100 "
b110 "
1I
1H
1(
1;
11
1E
1<
#300000
1!
14
0(
1F
1G
1B
0:
1'
0;
1#
0E
0<
#310000
b10 "
b0 "
0I
0H
1(
01
#320000
0!
04
0(
#340000
1!
14
1(
0F
0=
0G
0?
0'
0&
0#
#360000
0!
04
0(
#380000
1!
14
1(
#400000
0!
04
0(
#420000
1!
14
1(
#440000
0!
04
0(
#460000
1!
14
1(
#480000
0!
04
0(
#500000
1!
14
1(
#520000
0!
04
0(
#540000
1!
14
1(
#560000
0!
04
0(
#580000
1!
14
1(
#600000
0!
04
0(
#620000
1!
14
1(
#640000
0!
04
0(
#660000
1!
14
1(
#680000
0!
04
0(
#700000
1!
14
1(
#720000
0!
04
0(
#740000
1!
14
1(
#760000
0!
04
0(
#780000
1!
14
1(
#800000
0!
04
0(
#820000
1!
14
1(
#840000
0!
04
0(
#860000
1!
14
1(
#880000
0!
04
0(
#900000
1!
14
1(
#920000
0!
04
0(
#940000
1!
14
1(
#960000
0!
04
0(
#980000
1!
14
1(
