LAB2/MEALY_LBSMSSV/simulation/qsim/MEALY_LBSMSSV.msim.vcd
$comment
	File created using the following command:
		vcd file MEALY_LBSMSSV.msim.vcd -direction
$end
$date
	Mon Apr 17 20:57:52 2023
$end
$version
	ModelSim Version 10.1d
$end
$timescale
	1ps
$end
$scope module MEALY_LBSMSSV_vlg_vec_tst $end
$var reg 1 ! CLK $end
$var reg 1 " I $end
$var wire 1 # OUTPUT $end
$var wire 1 $ sampler $end
$scope module i1 $end
$var wire 1 % gnd $end
$var wire 1 & vcc $end
$var wire 1 ' unknown $end
$var tri1 1 ( devclrn $end
$var tri1 1 ) devpor $end
$var tri1 1 * devoe $end
$var wire 1 + CLK~combout $end
$var wire 1 , I~combout $end
$var wire 1 - inst|inst5~combout $end
$var wire 1 . inst2~regout $end
$var wire 1 / inst|inst4~combout $end
$var wire 1 0 inst1~regout $end
$var wire 1 1 inst3~0_combout $end
$upscope $end
$upscope $end
$enddefinitions $end
#0
$dumpvars
0!
0"
1#
x$
0%
1&
x'
1(
1)
1*
0+
0,
1-
0.
1/
00
11
$end
#100000
1!
1+
0$
10
1.
01
0#
#200000
0!
0+
1$
#240000
1"
1,
0$
0-
#300000
1!
1+
1$
0.
0/
#380000
0"
0,
0$
1/
1-
#400000
0!
0+
1$
#460000
1"
1,
0$
0/
0-
#500000
1!
1+
1$
00
1-
#580000
0"
0,
0$
11
1/
1#
#600000
0!
0+
1$
#700000
1!
1+
0$
10
1.
01
0#
#800000
0!
0+
1$
#900000
1!
1+
0$
